<mxfile host="app.diagrams.net" modified="2023-08-11T10:21:49.318Z" agent="Mozilla/5.0 (Windows NT 10.0; Win64; x64) AppleWebKit/537.36 (KHTML, like Gecko) Chrome/115.0.0.0 Safari/537.36" etag="Xm4zogd71rOgaRLBk5JM" version="21.6.8" type="gitlab">
  <diagram name="Page-1" id="tklFmz1K1mV2G0yn9Y-P">
    <mxGraphModel dx="2206" dy="1981" grid="0" gridSize="1" guides="1" tooltips="1" connect="1" arrows="1" fold="1" page="1" pageScale="1" pageWidth="1169" pageHeight="827" background="none" math="0" shadow="0">
      <root>
        <mxCell id="0" />
        <mxCell id="1" parent="0" />
        <mxCell id="706ib3QJ6pyc4pvstoyx-1" value="" style="html=1;overflow=block;blockSpacing=1;whiteSpace=wrap;fontSize=13;spacing=3.8;strokeColor=#979ea8;strokeOpacity=100;fillOpacity=100;rounded=1;absoluteArcSize=1;arcSize=9;fillColor=#f2f2ff;strokeWidth=0.8;lucidId=n2Bk-.PUPJcf;fontColor=default;" vertex="1" parent="1">
          <mxGeometry x="640" y="618" width="690" height="657" as="geometry" />
        </mxCell>
        <mxCell id="706ib3QJ6pyc4pvstoyx-2" value="" style="html=1;overflow=block;blockSpacing=1;whiteSpace=wrap;fontSize=13;spacing=3.8;strokeColor=#979ea8;strokeOpacity=100;fillOpacity=100;rounded=1;absoluteArcSize=1;arcSize=9;fillColor=#edf5ff;strokeWidth=0.8;lucidId=OmBkSjnRNjWp;fontColor=#000000;" vertex="1" parent="1">
          <mxGeometry x="650" y="-72" width="680" height="657" as="geometry" />
        </mxCell>
        <mxCell id="706ib3QJ6pyc4pvstoyx-3" value="Pod &#xa;ts-front" style="overflow=block;blockSpacing=1;whiteSpace=wrap;html=1;verticalLabelPosition=bottom;verticalAlign=top;shape=mxgraph.kubernetes.icon;prIcon=pod;fontSize=16.7;fontColor=#000000;spacing=0;strokeColor=none;strokeOpacity=100;rounded=1;absoluteArcSize=1;arcSize=9;fillColor=#326ce5;strokeWidth=0.8;lucidId=w5AktXSwT9w4;" vertex="1" parent="1">
          <mxGeometry x="1135" y="135" width="60" height="60" as="geometry" />
        </mxCell>
        <mxCell id="706ib3QJ6pyc4pvstoyx-5" value="Ingress &#xa;controller" style="overflow=block;blockSpacing=1;whiteSpace=wrap;html=1;verticalLabelPosition=bottom;verticalAlign=top;shape=mxgraph.kubernetes.icon;prIcon=ing;fontSize=16.7;fontColor=default;spacing=0;strokeColor=none;strokeOpacity=100;rounded=1;absoluteArcSize=1;arcSize=9;fillColor=#326ce5;strokeWidth=0.8;lucidId=R7AkGXBph59s;" vertex="1" parent="1">
          <mxGeometry x="505" y="405" width="90" height="90" as="geometry" />
        </mxCell>
        <mxCell id="706ib3QJ6pyc4pvstoyx-6" value="" style="html=1;jettySize=18;whiteSpace=wrap;fontSize=13;strokeColor=#008a0e;strokeOpacity=100;strokeWidth=0.8;rounded=1;arcSize=12;edgeStyle=orthogonalEdgeStyle;startArrow=none;endArrow=block;endFill=1;exitX=0.73;exitY=0.4;exitPerimeter=0;entryX=0.026;entryY=0.5;entryPerimeter=0;lucidId=h9Ak9Kp6wQ.w;" edge="1" parent="1" target="706ib3QJ6pyc4pvstoyx-5">
          <mxGeometry width="100" height="100" relative="1" as="geometry">
            <Array as="points" />
            <mxPoint x="143.80000000000018" y="450" as="sourcePoint" />
          </mxGeometry>
        </mxCell>
        <mxCell id="706ib3QJ6pyc4pvstoyx-7" value="https://ts.bmait.com/dev" style="html=1;overflow=block;blockSpacing=1;whiteSpace=wrap;fontSize=16.7;fontColor=#008a0e;spacing=3.8;strokeOpacity=0;fillOpacity=0;rounded=1;absoluteArcSize=1;arcSize=9;fillColor=#ffffff;strokeWidth=0.8;lucidId=r9Ak3jWdoNKN;" vertex="1" parent="1">
          <mxGeometry x="250" y="420" width="180" height="45" as="geometry" />
        </mxCell>
        <mxCell id="706ib3QJ6pyc4pvstoyx-8" value="" style="html=1;jettySize=18;whiteSpace=wrap;fontSize=13;strokeColor=#635dff;strokeOpacity=100;strokeWidth=0.8;rounded=1;arcSize=12;edgeStyle=orthogonalEdgeStyle;startArrow=none;endArrow=block;endFill=1;entryX=0.145;entryY=0.833;entryPerimeter=0;lucidId=r-Ak4PH6izjI;" edge="1" parent="1" target="706ib3QJ6pyc4pvstoyx-5">
          <mxGeometry width="100" height="100" relative="1" as="geometry">
            <Array as="points" />
            <mxPoint x="160" y="480" as="sourcePoint" />
          </mxGeometry>
        </mxCell>
        <mxCell id="706ib3QJ6pyc4pvstoyx-9" value="https://ts.bmait.com/pprod" style="html=1;overflow=block;blockSpacing=1;whiteSpace=wrap;fontSize=16.7;fontColor=#635dff;spacing=3.8;strokeOpacity=0;fillOpacity=0;rounded=1;absoluteArcSize=1;arcSize=9;fillColor=#ffffff;strokeWidth=0.8;lucidId=r-AkGVS6NZ8y;" vertex="1" parent="1">
          <mxGeometry x="266" y="450" width="180" height="45" as="geometry" />
        </mxCell>
        <mxCell id="706ib3QJ6pyc4pvstoyx-10" value="" style="html=1;jettySize=18;whiteSpace=wrap;fontSize=13;strokeColor=#1071e5;strokeOpacity=100;strokeWidth=0.8;rounded=1;arcSize=12;edgeStyle=orthogonalEdgeStyle;startArrow=none;endArrow=block;endFill=1;lucidId=d_AkDx_8FmvX;" edge="1" parent="1">
          <mxGeometry width="100" height="100" relative="1" as="geometry">
            <Array as="points" />
            <mxPoint x="160" y="510" as="sourcePoint" />
            <mxPoint x="518" y="510" as="targetPoint" />
          </mxGeometry>
        </mxCell>
        <mxCell id="706ib3QJ6pyc4pvstoyx-11" value="https://ts.bmait.com/prod" style="html=1;overflow=block;blockSpacing=1;whiteSpace=wrap;fontSize=16.7;fontColor=#1071e5;spacing=3.8;strokeOpacity=0;fillOpacity=0;rounded=1;absoluteArcSize=1;arcSize=9;fillColor=#ffffff;strokeWidth=0.8;lucidId=d_AkN6505rct;" vertex="1" parent="1">
          <mxGeometry x="266" y="480" width="180" height="45" as="geometry" />
        </mxCell>
        <mxCell id="706ib3QJ6pyc4pvstoyx-12" value="Ingress&#xa;dev" style="overflow=block;blockSpacing=1;whiteSpace=wrap;html=1;verticalLabelPosition=bottom;verticalAlign=top;shape=mxgraph.kubernetes.icon;prIcon=ing;fontSize=16.7;fontColor=#000000;spacing=0;strokeColor=none;strokeOpacity=100;rounded=1;absoluteArcSize=1;arcSize=9;fillColor=#326ce5;strokeWidth=0.8;lucidId=8_Akjfs_Fc8x;" vertex="1" parent="1">
          <mxGeometry x="685" y="135" width="60" height="60" as="geometry" />
        </mxCell>
        <mxCell id="706ib3QJ6pyc4pvstoyx-13" value="" style="html=1;jettySize=18;whiteSpace=wrap;fontSize=13;strokeColor=#008a0e;strokeOpacity=100;strokeWidth=0.8;rounded=1;arcSize=12;edgeStyle=orthogonalEdgeStyle;startArrow=none;endArrow=block;endFill=1;exitX=0.5;exitY=0;exitPerimeter=0;lucidId=8.Ak17.gnas7;fontColor=default;" edge="1" parent="1" source="706ib3QJ6pyc4pvstoyx-5">
          <mxGeometry width="100" height="100" relative="1" as="geometry">
            <Array as="points">
              <mxPoint x="550" y="290" />
              <mxPoint x="620" y="290" />
              <mxPoint x="620" y="165" />
            </Array>
            <mxPoint x="680" y="165" as="targetPoint" />
          </mxGeometry>
        </mxCell>
        <mxCell id="706ib3QJ6pyc4pvstoyx-14" value="Ingress&#xa;pprod" style="overflow=block;blockSpacing=1;whiteSpace=wrap;html=1;verticalLabelPosition=bottom;verticalAlign=top;shape=mxgraph.kubernetes.icon;prIcon=ing;fontSize=16.7;fontColor=default;spacing=0;strokeColor=none;strokeOpacity=100;rounded=1;absoluteArcSize=1;arcSize=9;fillColor=#326ce5;strokeWidth=0.8;lucidId=k~Ak8HQtY~dB;" vertex="1" parent="1">
          <mxGeometry x="685" y="840" width="60" height="60" as="geometry" />
        </mxCell>
        <mxCell id="706ib3QJ6pyc4pvstoyx-15" value="" style="html=1;jettySize=18;whiteSpace=wrap;fontSize=13;strokeColor=#635dff;strokeOpacity=100;strokeWidth=0.8;rounded=1;arcSize=12;edgeStyle=orthogonalEdgeStyle;startArrow=none;endArrow=block;endFill=1;exitX=0.5;exitY=1;exitPerimeter=0;entryX=0.026;entryY=0.5;entryPerimeter=0;lucidId=y~Akm4zjj92v;fontColor=default;" edge="1" parent="1" source="706ib3QJ6pyc4pvstoyx-5" target="706ib3QJ6pyc4pvstoyx-14">
          <mxGeometry width="100" height="100" relative="1" as="geometry">
            <Array as="points" />
          </mxGeometry>
        </mxCell>
        <mxCell id="706ib3QJ6pyc4pvstoyx-16" value="Service&#xa;ts-front" style="overflow=block;blockSpacing=1;whiteSpace=wrap;html=1;verticalLabelPosition=bottom;verticalAlign=top;shape=mxgraph.kubernetes.icon;prIcon=svc;fontSize=16.7;fontColor=#000000;spacing=0;strokeColor=none;strokeOpacity=100;rounded=1;absoluteArcSize=1;arcSize=9;fillColor=#326ce5;strokeWidth=0.8;lucidId=7bBkRqcFa5.R;" vertex="1" parent="1">
          <mxGeometry x="895" y="135" width="60" height="60" as="geometry" />
        </mxCell>
        <mxCell id="706ib3QJ6pyc4pvstoyx-17" value="" style="html=1;jettySize=18;whiteSpace=wrap;fontSize=13;strokeColor=#008a0e;strokeOpacity=100;strokeWidth=0.8;rounded=1;arcSize=12;edgeStyle=orthogonalEdgeStyle;startArrow=none;endArrow=block;endFill=1;exitX=0.974;exitY=0.5;exitPerimeter=0;entryX=0.026;entryY=0.5;entryPerimeter=0;lucidId=fcBkVWQSQ_zX;fontColor=#000000;" edge="1" parent="1" source="706ib3QJ6pyc4pvstoyx-12" target="706ib3QJ6pyc4pvstoyx-16">
          <mxGeometry width="100" height="100" relative="1" as="geometry">
            <Array as="points" />
          </mxGeometry>
        </mxCell>
        <mxCell id="706ib3QJ6pyc4pvstoyx-18" value="" style="html=1;jettySize=18;whiteSpace=wrap;fontSize=13;strokeColor=#008a0e;strokeOpacity=100;strokeWidth=0.8;rounded=1;arcSize=12;edgeStyle=orthogonalEdgeStyle;startArrow=none;endArrow=block;endFill=1;exitX=0.974;exitY=0.5;exitPerimeter=0;entryX=0.026;entryY=0.5;entryPerimeter=0;lucidId=zcBkdJOhf~nS;fontColor=#000000;" edge="1" parent="1" source="706ib3QJ6pyc4pvstoyx-16" target="706ib3QJ6pyc4pvstoyx-3">
          <mxGeometry width="100" height="100" relative="1" as="geometry">
            <Array as="points" />
          </mxGeometry>
        </mxCell>
        <mxCell id="706ib3QJ6pyc4pvstoyx-19" value="DNS Record" style="overflow=block;blockSpacing=1;whiteSpace=wrap;image;aspect=fixed;html=1;points=[];align=center;verticalAlign=top;image=img/lib/mscae/DNS.svg;fontSize=16.7;fontColor=#3a414a;spacing=0;strokeColor=#3a414a;strokeOpacity=100;rounded=1;absoluteArcSize=1;arcSize=9;fillColor=#0072C6;strokeWidth=0.8;lucidId=JdBkZCpybwoZ;" vertex="1" parent="1">
          <mxGeometry x="160" y="158" width="44" height="38" as="geometry" />
        </mxCell>
        <mxCell id="706ib3QJ6pyc4pvstoyx-20" value="" style="html=1;jettySize=18;whiteSpace=wrap;fontSize=13;strokeColor=#979ea8;strokeOpacity=100;strokeWidth=0.8;rounded=1;arcSize=12;edgeStyle=orthogonalEdgeStyle;startArrow=none;endArrow=block;endFill=1;exitX=0.5;exitY=0;exitPerimeter=0;entryX=0.476;entryY=1.006;entryPerimeter=0;lucidId=hmBkMIT31DGz;fontColor=default;" edge="1" parent="1" source="706ib3QJ6pyc4pvstoyx-7" target="706ib3QJ6pyc4pvstoyx-59">
          <mxGeometry width="100" height="100" relative="1" as="geometry">
            <Array as="points" />
          </mxGeometry>
        </mxCell>
        <mxCell id="706ib3QJ6pyc4pvstoyx-21" value="Timesheet-dev namespace" style="html=1;overflow=block;blockSpacing=1;whiteSpace=wrap;fontSize=16.7;fontFamily=Comic Sans MS;fontColor=#000000;spacing=3.8;strokeOpacity=0;fillOpacity=0;rounded=1;absoluteArcSize=1;arcSize=9;fillColor=#ffffff;strokeWidth=0.8;lucidId=2nBkvRCFp5Zv;labelBackgroundColor=none;labelBorderColor=none;fontStyle=1" vertex="1" parent="1">
          <mxGeometry x="1178" y="-81" width="180" height="48" as="geometry" />
        </mxCell>
        <mxCell id="706ib3QJ6pyc4pvstoyx-22" value="" style="html=1;overflow=block;blockSpacing=1;whiteSpace=wrap;rounded=1;absoluteArcSize=1;arcSize=24;container=1;pointerEvents=0;collapsible=0;recursiveResize=0;fontSize=13;spacing=0;strokeColor=#e81313;strokeOpacity=100;fillOpacity=0;fillColor=#000000;dashed=1;fixDash=1;dashPattern=8 8;strokeWidth=3;lucidId=7sBkaYF85dBy;fontColor=default;" vertex="1" parent="1">
          <mxGeometry x="670" y="105" width="90" height="855" as="geometry" />
        </mxCell>
        <mxCell id="706ib3QJ6pyc4pvstoyx-23" value="ts-secret" style="overflow=block;blockSpacing=1;whiteSpace=wrap;html=1;verticalLabelPosition=bottom;verticalAlign=top;shape=mxgraph.kubernetes.icon;prIcon=secret;fontSize=16.7;fontColor=#000000;spacing=0;strokeColor=none;strokeOpacity=100;rounded=1;absoluteArcSize=1;arcSize=9;fillColor=#326ce5;strokeWidth=0.8;lucidId=.zBkU9Tg_lFC;" vertex="1" parent="1">
          <mxGeometry x="835" y="-24" width="69" height="69" as="geometry" />
        </mxCell>
        <mxCell id="706ib3QJ6pyc4pvstoyx-24" value="" style="html=1;jettySize=18;whiteSpace=wrap;fontSize=13;strokeColor=#008573;strokeOpacity=100;strokeWidth=0.8;rounded=1;arcSize=12;edgeStyle=orthogonalEdgeStyle;startArrow=block;startFill=1;endArrow=none;exitX=0.026;exitY=0.5;exitPerimeter=0;entryX=0.5;entryY=0;entryPerimeter=0;lucidId=AABkOGlWzp1o;fontColor=#000000;" edge="1" parent="1" source="706ib3QJ6pyc4pvstoyx-23" target="706ib3QJ6pyc4pvstoyx-12">
          <mxGeometry width="100" height="100" relative="1" as="geometry">
            <Array as="points" />
          </mxGeometry>
        </mxCell>
        <mxCell id="706ib3QJ6pyc4pvstoyx-25" value="Certificate Manager" style="html=1;overflow=block;blockSpacing=1;whiteSpace=wrap;fontSize=16.7;fontColor=#000000;spacing=0;strokeColor=none;strokeOpacity=100;fillOpacity=100;fillColor=#4285f4;strokeWidth=0.8;lucidId=kBBkrE_bwEIE;rounded=1;" vertex="1" parent="1">
          <mxGeometry x="1015" y="-24" width="69" height="69" as="geometry" />
        </mxCell>
        <mxCell id="706ib3QJ6pyc4pvstoyx-26" value="" style="html=1;jettySize=18;whiteSpace=wrap;fontSize=13;strokeColor=#008573;strokeOpacity=100;strokeWidth=0.8;rounded=1;arcSize=12;edgeStyle=orthogonalEdgeStyle;startArrow=none;endArrow=block;endFill=1;exitX=0;exitY=0.5;exitPerimeter=0;entryX=0.974;entryY=0.5;entryPerimeter=0;lucidId=ZBBkZ2UlWT-Q;fontColor=#000000;" edge="1" parent="1" source="706ib3QJ6pyc4pvstoyx-25" target="706ib3QJ6pyc4pvstoyx-23">
          <mxGeometry width="100" height="100" relative="1" as="geometry">
            <Array as="points" />
          </mxGeometry>
        </mxCell>
        <mxCell id="706ib3QJ6pyc4pvstoyx-27" value="Certif" style="text;html=1;resizable=0;labelBackgroundColor=default;align=center;verticalAlign=middle;fontStyle=1;fontColor=#000000;fontSize=13.3;rounded=1;" vertex="1" parent="706ib3QJ6pyc4pvstoyx-26">
          <mxGeometry relative="1" as="geometry" />
        </mxCell>
        <mxCell id="706ib3QJ6pyc4pvstoyx-28" value="" style="group;dropTarget=0;pointerEvents=0;html=1;rounded=1;" vertex="1" parent="1">
          <mxGeometry x="385" y="-150" width="174" height="150" as="geometry" />
        </mxCell>
        <mxCell id="706ib3QJ6pyc4pvstoyx-29" value="Host" style="shape=partialRectangle;html=1;whiteSpace=wrap;connectable=0;fillColor=#fcfcca;fillOpacity=100;verticalAlign=middle;dashed=1;fixDash=1;spacing=3.8;strokeWidth=0.8;fontSize=16.7;rounded=1;" vertex="1" parent="706ib3QJ6pyc4pvstoyx-28">
          <mxGeometry width="72.31481481481482" height="30" as="geometry" />
        </mxCell>
        <mxCell id="706ib3QJ6pyc4pvstoyx-30" value="ts.bmait.com" style="shape=partialRectangle;html=1;whiteSpace=wrap;connectable=0;fillColor=#fcfcca;fillOpacity=100;verticalAlign=middle;dashed=1;fixDash=1;spacing=3.8;strokeWidth=0.8;fontSize=16.7;rounded=1;" vertex="1" parent="706ib3QJ6pyc4pvstoyx-28">
          <mxGeometry x="72.31481481481482" width="101.80555555555554" height="30" as="geometry" />
        </mxCell>
        <mxCell id="706ib3QJ6pyc4pvstoyx-31" value="Path" style="shape=partialRectangle;html=1;whiteSpace=wrap;connectable=0;fillColor=#fcfcca;fillOpacity=100;verticalAlign=middle;dashed=1;fixDash=1;spacing=3.8;strokeWidth=0.8;fontSize=16.7;rounded=1;" vertex="1" parent="706ib3QJ6pyc4pvstoyx-28">
          <mxGeometry y="30" width="72.31481481481482" height="30" as="geometry" />
        </mxCell>
        <mxCell id="706ib3QJ6pyc4pvstoyx-32" value="/dev" style="shape=partialRectangle;html=1;whiteSpace=wrap;connectable=0;fillColor=#fcfcca;fillOpacity=100;verticalAlign=middle;dashed=1;fixDash=1;spacing=3.8;strokeWidth=0.8;fontSize=16.7;rounded=1;" vertex="1" parent="706ib3QJ6pyc4pvstoyx-28">
          <mxGeometry x="72.31481481481482" y="30" width="101.80555555555554" height="30" as="geometry" />
        </mxCell>
        <mxCell id="706ib3QJ6pyc4pvstoyx-33" value="Backend" style="shape=partialRectangle;html=1;whiteSpace=wrap;connectable=0;fillColor=#fcfcca;fillOpacity=100;verticalAlign=middle;dashed=1;fixDash=1;spacing=3.8;strokeWidth=0.8;fontSize=16.7;rounded=1;fontColor=default;" vertex="1" parent="706ib3QJ6pyc4pvstoyx-28">
          <mxGeometry y="60" width="72.31481481481482" height="30" as="geometry" />
        </mxCell>
        <mxCell id="706ib3QJ6pyc4pvstoyx-34" value="ts-dev-front" style="shape=partialRectangle;html=1;whiteSpace=wrap;connectable=0;fillColor=#fcfcca;fillOpacity=100;verticalAlign=middle;dashed=1;fixDash=1;spacing=3.8;strokeWidth=0.8;fontSize=16.7;rounded=1;fontColor=default;" vertex="1" parent="706ib3QJ6pyc4pvstoyx-28">
          <mxGeometry x="72.31481481481482" y="60" width="101.80555555555554" height="30" as="geometry" />
        </mxCell>
        <mxCell id="706ib3QJ6pyc4pvstoyx-35" value="Port" style="shape=partialRectangle;html=1;whiteSpace=wrap;connectable=0;fillColor=#fcfcca;strokeOpacity=100;fillOpacity=100;verticalAlign=middle;dashed=1;fixDash=1;spacing=3.8;strokeWidth=0.8;fontSize=16.7;rounded=1;fontColor=default;" vertex="1" parent="706ib3QJ6pyc4pvstoyx-28">
          <mxGeometry y="90" width="72.31481481481482" height="30" as="geometry" />
        </mxCell>
        <mxCell id="706ib3QJ6pyc4pvstoyx-36" value="80, 443" style="shape=partialRectangle;html=1;whiteSpace=wrap;connectable=0;fillColor=#fcfcca;strokeOpacity=100;fillOpacity=100;verticalAlign=middle;dashed=1;fixDash=1;spacing=3.8;strokeWidth=0.8;fontSize=16.7;rounded=1;fontColor=default;" vertex="1" parent="706ib3QJ6pyc4pvstoyx-28">
          <mxGeometry x="72.31481481481482" y="90" width="101.80555555555554" height="30" as="geometry" />
        </mxCell>
        <mxCell id="706ib3QJ6pyc4pvstoyx-37" value="TLS" style="shape=partialRectangle;html=1;whiteSpace=wrap;connectable=0;fillColor=#fcfcca;strokeOpacity=100;fillOpacity=100;verticalAlign=middle;dashed=1;fixDash=1;spacing=3.8;strokeWidth=0.8;fontSize=16.7;rounded=1;fontColor=default;" vertex="1" parent="706ib3QJ6pyc4pvstoyx-28">
          <mxGeometry y="120" width="72.31481481481482" height="30" as="geometry" />
        </mxCell>
        <mxCell id="706ib3QJ6pyc4pvstoyx-38" value="ts-secret" style="shape=partialRectangle;html=1;whiteSpace=wrap;connectable=0;fillColor=#fcfcca;strokeOpacity=100;fillOpacity=100;verticalAlign=middle;dashed=1;fixDash=1;spacing=3.8;strokeWidth=0.8;fontSize=16.7;rounded=1;fontColor=default;" vertex="1" parent="706ib3QJ6pyc4pvstoyx-28">
          <mxGeometry x="72.31481481481482" y="120" width="101.80555555555554" height="30" as="geometry" />
        </mxCell>
        <mxCell id="706ib3QJ6pyc4pvstoyx-39" value="" style="html=1;jettySize=18;whiteSpace=wrap;fontSize=13;strokeColor=#008573;strokeOpacity=100;strokeWidth=0.8;rounded=1;arcSize=12;edgeStyle=orthogonalEdgeStyle;startArrow=block;startFill=1;endArrow=none;exitX=1.002;exitY=0.5;exitPerimeter=0;entryX=0.215;entryY=0.133;entryPerimeter=0;lucidId=nFBkYd.6.68X;fontColor=default;" edge="1" parent="1" source="706ib3QJ6pyc4pvstoyx-28" target="706ib3QJ6pyc4pvstoyx-12">
          <mxGeometry width="100" height="100" relative="1" as="geometry">
            <Array as="points" />
          </mxGeometry>
        </mxCell>
        <mxCell id="706ib3QJ6pyc4pvstoyx-40" value="Pod&#xa;ts-api" style="overflow=block;blockSpacing=1;whiteSpace=wrap;html=1;verticalLabelPosition=bottom;verticalAlign=top;shape=mxgraph.kubernetes.icon;prIcon=pod;fontSize=16.7;fontColor=#000000;spacing=0;strokeColor=none;strokeOpacity=100;rounded=1;absoluteArcSize=1;arcSize=9;fillColor=#326ce5;strokeWidth=0.8;lucidId=6IBk2XAK-EOn;" vertex="1" parent="1">
          <mxGeometry x="1135" y="255" width="60" height="60" as="geometry" />
        </mxCell>
        <mxCell id="706ib3QJ6pyc4pvstoyx-41" value="Service&#xa;ts-api" style="points=[[0.479,0.536,0]];overflow=block;blockSpacing=1;whiteSpace=wrap;html=1;verticalLabelPosition=bottom;verticalAlign=top;shape=mxgraph.kubernetes.icon;prIcon=svc;fontSize=16.7;fontColor=#000000;spacing=0;strokeColor=none;strokeOpacity=100;rounded=1;absoluteArcSize=1;arcSize=9;fillColor=#326ce5;strokeWidth=0.8;lucidId=fKBk4ODMliyU;" vertex="1" parent="1">
          <mxGeometry x="895" y="260" width="60" height="60" as="geometry" />
        </mxCell>
        <mxCell id="706ib3QJ6pyc4pvstoyx-42" value="" style="html=1;overflow=block;blockSpacing=1;whiteSpace=wrap;rounded=1;absoluteArcSize=1;arcSize=24;container=1;pointerEvents=0;collapsible=0;recursiveResize=0;fontSize=13;spacing=0;strokeColor=#e81313;strokeOpacity=100;fillOpacity=0;fillColor=#000000;dashed=1;fixDash=1;dashPattern=8 8;strokeWidth=3;lucidId=KKBk2ArZIwcy;fontColor=#000000;" vertex="1" parent="1">
          <mxGeometry x="820" y="120" width="405" height="120" as="geometry" />
        </mxCell>
        <mxCell id="706ib3QJ6pyc4pvstoyx-43" value="" style="html=1;overflow=block;blockSpacing=1;whiteSpace=wrap;rounded=1;absoluteArcSize=1;arcSize=24;container=1;pointerEvents=0;collapsible=0;recursiveResize=0;fontSize=13;spacing=0;strokeColor=#e81313;strokeOpacity=100;fillOpacity=0;fillColor=#000000;dashed=1;fixDash=1;dashPattern=8 8;strokeWidth=3;lucidId=fLBkdPQOrds9;fontColor=#000000;" vertex="1" parent="1">
          <mxGeometry x="820" y="248" width="405" height="120" as="geometry" />
        </mxCell>
        <mxCell id="706ib3QJ6pyc4pvstoyx-44" value="Deploy front" style="overflow=block;blockSpacing=1;whiteSpace=wrap;html=1;verticalLabelPosition=bottom;verticalAlign=top;shape=mxgraph.kubernetes.icon;prIcon=deploy;fontSize=16.7;fontColor=#000000;spacing=0;strokeColor=none;strokeOpacity=100;rounded=1;absoluteArcSize=1;arcSize=9;fillColor=#326ce5;strokeWidth=0.8;lucidId=TLBkdZmHqVLj;" vertex="1" parent="1">
          <mxGeometry x="1208" y="75" width="47" height="47" as="geometry" />
        </mxCell>
        <mxCell id="706ib3QJ6pyc4pvstoyx-48" value="" style="html=1;overflow=block;blockSpacing=1;whiteSpace=wrap;rounded=1;absoluteArcSize=1;arcSize=24;container=1;pointerEvents=0;collapsible=0;recursiveResize=0;fontSize=13;spacing=0;strokeColor=#e81313;strokeOpacity=100;fillOpacity=0;fillColor=#000000;dashed=1;fixDash=1;dashPattern=8 8;strokeWidth=3;lucidId=jOBkZruE_WM4;fontColor=#000000;" vertex="1" parent="1">
          <mxGeometry x="820" y="389" width="405" height="120" as="geometry" />
        </mxCell>
        <mxCell id="706ib3QJ6pyc4pvstoyx-50" value="" style="html=1;jettySize=18;whiteSpace=wrap;fontSize=13;strokeColor=#008573;strokeOpacity=100;dashed=1;fixDash=1;dashPattern=6 5;strokeWidth=3;rounded=1;arcSize=12;edgeStyle=orthogonalEdgeStyle;startArrow=none;endArrow=block;endFill=1;exitX=0.5;exitY=1;exitPerimeter=0;entryX=0.5;entryY=0;entryPerimeter=0;lucidId=QPBkeaAaKZ_N;fontColor=#000000;" edge="1" parent="1" source="706ib3QJ6pyc4pvstoyx-3" target="706ib3QJ6pyc4pvstoyx-41">
          <mxGeometry width="100" height="100" relative="1" as="geometry">
            <Array as="points" />
          </mxGeometry>
        </mxCell>
        <mxCell id="706ib3QJ6pyc4pvstoyx-51" value="" style="html=1;jettySize=18;whiteSpace=wrap;fontSize=13;strokeColor=#008573;strokeOpacity=100;strokeWidth=0.8;rounded=1;arcSize=12;edgeStyle=orthogonalEdgeStyle;startArrow=none;endArrow=block;endFill=1;exitX=0.479;exitY=0.536;exitPerimeter=0;entryX=0.002;entryY=0.62;entryPerimeter=0;lucidId=2QBkOOBNjvZZ;fontColor=#000000;" edge="1" parent="1" source="706ib3QJ6pyc4pvstoyx-41" target="706ib3QJ6pyc4pvstoyx-40">
          <mxGeometry width="100" height="100" relative="1" as="geometry">
            <Array as="points" />
          </mxGeometry>
        </mxCell>
        <mxCell id="706ib3QJ6pyc4pvstoyx-52" value="" style="html=1;jettySize=18;whiteSpace=wrap;fontSize=13;strokeColor=#008573;strokeOpacity=100;dashed=1;fixDash=1;dashPattern=6 5;strokeWidth=2.3;rounded=1;arcSize=12;edgeStyle=orthogonalEdgeStyle;startArrow=block;startFill=1;endArrow=none;exitX=0.026;exitY=0.5;exitPerimeter=0;entryX=0.479;entryY=0.536;entryPerimeter=0;lucidId=qRBk0__szffv;fontColor=#000000;" edge="1" parent="1" target="706ib3QJ6pyc4pvstoyx-41">
          <mxGeometry width="100" height="100" relative="1" as="geometry">
            <Array as="points" />
            <mxPoint x="896.56" y="427" as="sourcePoint" />
          </mxGeometry>
        </mxCell>
        <mxCell id="706ib3QJ6pyc4pvstoyx-54" value="CronJob" style="overflow=block;blockSpacing=1;whiteSpace=wrap;html=1;verticalLabelPosition=bottom;verticalAlign=top;shape=mxgraph.kubernetes.icon;prIcon=cronjob;fontSize=16.7;fontColor=#000000;spacing=0;strokeColor=none;strokeOpacity=100;rounded=1;absoluteArcSize=1;arcSize=9;fillColor=#326ce5;strokeWidth=0.8;lucidId=2TBk5Ll0OUcb;" vertex="1" parent="1">
          <mxGeometry x="1208" y="-24" width="62" height="62" as="geometry" />
        </mxCell>
        <mxCell id="706ib3QJ6pyc4pvstoyx-55" value="" style="html=1;jettySize=18;whiteSpace=wrap;fontSize=13;strokeColor=#82b366;strokeOpacity=100;strokeWidth=0.8;rounded=1;arcSize=12;edgeStyle=orthogonalEdgeStyle;startArrow=block;startFill=1;endArrow=block;endFill=0;exitX=1;exitY=0.459;exitPerimeter=0;entryX=0.024;entryY=0.509;entryPerimeter=0;lucidId=oUBkp-Xp98Js;fontColor=#66FF66;fillColor=#d5e8d4;" edge="1" parent="1" source="706ib3QJ6pyc4pvstoyx-25" target="706ib3QJ6pyc4pvstoyx-54">
          <mxGeometry width="100" height="100" relative="1" as="geometry">
            <Array as="points" />
          </mxGeometry>
        </mxCell>
        <mxCell id="706ib3QJ6pyc4pvstoyx-56" value="renew" style="text;html=1;resizable=0;labelBackgroundColor=default;align=center;verticalAlign=middle;fontStyle=1;fontColor=#000000;fontSize=13.3;rounded=1;" vertex="1" parent="706ib3QJ6pyc4pvstoyx-55">
          <mxGeometry x="0.18543206849990934" relative="1" as="geometry" />
        </mxCell>
        <mxCell id="706ib3QJ6pyc4pvstoyx-57" value="10.10.10.101" style="html=1;overflow=block;blockSpacing=1;whiteSpace=wrap;fontSize=18.3;fontColor=default;fontStyle=1;spacing=3.8;strokeColor=none;fillOpacity=0;rotation=-90;fillColor=#ffffff;strokeWidth=0;lucidId=xYBkI5K-H-bt;rounded=1;" vertex="1" parent="1">
          <mxGeometry x="481" y="293" width="105" height="30" as="geometry" />
        </mxCell>
        <mxCell id="706ib3QJ6pyc4pvstoyx-58" value="10.10.10.102" style="html=1;overflow=block;blockSpacing=1;whiteSpace=wrap;fontSize=16.7;fontColor=default;fontStyle=1;spacing=3.8;strokeColor=none;fillOpacity=0;rotation=-90;fillColor=#ffffff;strokeWidth=0;lucidId=XYBkaLM2gLL7;rounded=1;" vertex="1" parent="1">
          <mxGeometry x="481" y="593" width="105" height="30" as="geometry" />
        </mxCell>
        <mxCell id="706ib3QJ6pyc4pvstoyx-59" value="" style="group;dropTarget=0;pointerEvents=0;html=1;rounded=1;dashed=1;strokeWidth=2;" vertex="1" parent="1">
          <mxGeometry x="220" y="160" width="370" height="93" as="geometry" />
        </mxCell>
        <mxCell id="706ib3QJ6pyc4pvstoyx-60" value="Type" style="shape=partialRectangle;html=1;whiteSpace=wrap;connectable=0;fillColor=#fcfcca;fillOpacity=100;verticalAlign=middle;spacing=3.8;strokeWidth=0.8;fontSize=16.7;rounded=1;" vertex="1" parent="706ib3QJ6pyc4pvstoyx-59">
          <mxGeometry width="91.66666666666666" height="33" as="geometry" />
        </mxCell>
        <mxCell id="706ib3QJ6pyc4pvstoyx-61" value="Name" style="shape=partialRectangle;html=1;whiteSpace=wrap;connectable=0;fillColor=#fcfcca;fillOpacity=100;verticalAlign=middle;spacing=3.8;strokeWidth=0.8;fontSize=16.7;rounded=1;fontColor=default;" vertex="1" parent="706ib3QJ6pyc4pvstoyx-59">
          <mxGeometry x="91.67" width="138.33" height="33" as="geometry" />
        </mxCell>
        <mxCell id="706ib3QJ6pyc4pvstoyx-62" value="Value" style="shape=partialRectangle;html=1;whiteSpace=wrap;connectable=0;fillColor=#fcfcca;strokeOpacity=100;fillOpacity=100;verticalAlign=middle;spacing=3.8;strokeWidth=0.8;fontSize=16.7;rounded=1;fontColor=default;" vertex="1" parent="706ib3QJ6pyc4pvstoyx-59">
          <mxGeometry x="230" width="140" height="33" as="geometry" />
        </mxCell>
        <mxCell id="706ib3QJ6pyc4pvstoyx-63" value="A" style="shape=partialRectangle;html=1;whiteSpace=wrap;connectable=0;fillColor=#fcfcca;fillOpacity=100;verticalAlign=middle;spacing=3.8;strokeWidth=0.8;fontSize=16.7;rounded=1;" vertex="1" parent="706ib3QJ6pyc4pvstoyx-59">
          <mxGeometry y="33" width="91.66666666666666" height="30" as="geometry" />
        </mxCell>
        <mxCell id="706ib3QJ6pyc4pvstoyx-64" value="ts.bmait.com" style="shape=partialRectangle;html=1;whiteSpace=wrap;connectable=0;fillColor=#fcfcca;fillOpacity=100;verticalAlign=middle;spacing=3.8;strokeWidth=0.8;fontSize=16.7;rounded=1;fontColor=default;" vertex="1" parent="706ib3QJ6pyc4pvstoyx-59">
          <mxGeometry x="91.67" y="33" width="138.33" height="30" as="geometry" />
        </mxCell>
        <mxCell id="706ib3QJ6pyc4pvstoyx-65" value="&lt;div style=&quot;display: flex; justify-content: center; text-align: center; align-items: baseline; font-size: 0; line-height: 1.25;margin-top: -2px;&quot;&gt;&lt;span&gt;&lt;a href=&quot;http://141.94.141.112&quot;&gt;&lt;span style=&quot;font-size:16.7px;&quot;&gt;141.94.141.112&lt;/span&gt;&lt;/a&gt;&lt;/span&gt;&lt;/div&gt;" style="shape=partialRectangle;html=1;whiteSpace=wrap;connectable=0;fillColor=#fcfcca;strokeOpacity=100;fillOpacity=100;verticalAlign=middle;overflow=block;blockSpacing=1;spacing=3.8;strokeWidth=0.8;fontSize=13;rounded=1;fontColor=default;" vertex="1" parent="706ib3QJ6pyc4pvstoyx-59">
          <mxGeometry x="230" y="33" width="140" height="30" as="geometry" />
        </mxCell>
        <mxCell id="706ib3QJ6pyc4pvstoyx-66" value="Pod &#xa;ts-front" style="overflow=block;blockSpacing=1;whiteSpace=wrap;html=1;verticalLabelPosition=bottom;verticalAlign=top;shape=mxgraph.kubernetes.icon;prIcon=pod;fontSize=16.7;fontColor=default;spacing=0;strokeColor=none;strokeOpacity=100;rounded=1;absoluteArcSize=1;arcSize=9;fillColor=#326ce5;strokeWidth=0.8;lucidId=n2BklPtJaAvx;" vertex="1" parent="1">
          <mxGeometry x="1135" y="825" width="60" height="60" as="geometry" />
        </mxCell>
        <mxCell id="706ib3QJ6pyc4pvstoyx-67" value="Service&#xa;ts-front" style="overflow=block;blockSpacing=1;whiteSpace=wrap;html=1;verticalLabelPosition=bottom;verticalAlign=top;shape=mxgraph.kubernetes.icon;prIcon=svc;fontSize=16.7;fontColor=default;spacing=0;strokeColor=none;strokeOpacity=100;rounded=1;absoluteArcSize=1;arcSize=9;fillColor=#326ce5;strokeWidth=0.8;lucidId=n2Bkr4n_6Qly;" vertex="1" parent="1">
          <mxGeometry x="895" y="825" width="60" height="60" as="geometry" />
        </mxCell>
        <mxCell id="706ib3QJ6pyc4pvstoyx-68" value="Timesheet-pprod namespace" style="html=1;overflow=block;blockSpacing=1;whiteSpace=wrap;fontSize=16.7;fontFamily=Comic Sans MS;fontColor=default;spacing=3.8;strokeOpacity=0;fillOpacity=0;rounded=1;absoluteArcSize=1;arcSize=9;fillColor=#ffffff;strokeWidth=0.8;lucidId=n2BkoFBx0Q1a;fontStyle=1" vertex="1" parent="1">
          <mxGeometry x="1179" y="609" width="180" height="48" as="geometry" />
        </mxCell>
        <mxCell id="706ib3QJ6pyc4pvstoyx-69" value="" style="html=1;overflow=block;blockSpacing=1;whiteSpace=wrap;rounded=1;absoluteArcSize=1;arcSize=24;container=1;pointerEvents=0;collapsible=0;recursiveResize=0;fontSize=13;spacing=0;strokeColor=#e81313;strokeOpacity=100;fillOpacity=0;fillColor=#000000;dashed=1;fixDash=1;dashPattern=8 8;strokeWidth=3;lucidId=n2BkpnkYUf0i;fontColor=default;" vertex="1" parent="1">
          <mxGeometry x="820" y="810" width="405" height="120" as="geometry" />
        </mxCell>
        <mxCell id="706ib3QJ6pyc4pvstoyx-70" value="" style="html=1;overflow=block;blockSpacing=1;whiteSpace=wrap;rounded=1;absoluteArcSize=1;arcSize=24;container=1;pointerEvents=0;collapsible=0;recursiveResize=0;fontSize=13;spacing=0;strokeColor=#e81313;strokeOpacity=100;fillOpacity=0;fillColor=#000000;dashed=1;fixDash=1;dashPattern=8 8;strokeWidth=3;lucidId=n2BkTIKRVEZW;fontColor=default;" vertex="1" parent="1">
          <mxGeometry x="820" y="938" width="405" height="120" as="geometry" />
        </mxCell>
        <mxCell id="706ib3QJ6pyc4pvstoyx-71" value="Pod&#xa;database" style="overflow=block;blockSpacing=1;whiteSpace=wrap;html=1;verticalLabelPosition=bottom;verticalAlign=top;shape=mxgraph.kubernetes.icon;prIcon=pod;fontSize=16.7;fontColor=default;spacing=0;strokeColor=none;strokeOpacity=100;rounded=1;absoluteArcSize=1;arcSize=9;fillColor=#326ce5;strokeWidth=0.8;lucidId=n2BkCf0nbx28;" vertex="1" parent="1">
          <mxGeometry x="1135" y="1088" width="60" height="60" as="geometry" />
        </mxCell>
        <mxCell id="706ib3QJ6pyc4pvstoyx-72" value="Service&#xa;database" style="overflow=block;blockSpacing=1;whiteSpace=wrap;html=1;verticalLabelPosition=bottom;verticalAlign=top;shape=mxgraph.kubernetes.icon;prIcon=svc;fontSize=16.7;fontColor=default;spacing=0;strokeColor=none;strokeOpacity=100;rounded=1;absoluteArcSize=1;arcSize=9;fillColor=#326ce5;strokeWidth=0.8;lucidId=n2BkD5E5nFz1;" vertex="1" parent="1">
          <mxGeometry x="895" y="1087" width="60" height="60" as="geometry" />
        </mxCell>
        <mxCell id="706ib3QJ6pyc4pvstoyx-73" value="" style="html=1;overflow=block;blockSpacing=1;whiteSpace=wrap;rounded=1;absoluteArcSize=1;arcSize=24;container=1;pointerEvents=0;collapsible=0;recursiveResize=0;fontSize=13;spacing=0;strokeColor=#e81313;strokeOpacity=100;fillOpacity=0;fillColor=#000000;dashed=1;fixDash=1;dashPattern=8 8;strokeWidth=3;lucidId=n2BkyjSVbUaY;fontColor=default;" vertex="1" parent="1">
          <mxGeometry x="820" y="1079" width="405" height="120" as="geometry" />
        </mxCell>
        <mxCell id="706ib3QJ6pyc4pvstoyx-74" value="" style="html=1;jettySize=18;whiteSpace=wrap;fontSize=13;strokeColor=#008573;strokeOpacity=100;strokeWidth=0.8;rounded=1;arcSize=12;edgeStyle=orthogonalEdgeStyle;startArrow=block;startFill=1;endArrow=none;exitX=0.026;exitY=0.5;exitPerimeter=0;entryX=0.5;entryY=0;entryPerimeter=0;lucidId=J3Bkdnbgd0ke;fontColor=default;" edge="1" parent="1" source="706ib3QJ6pyc4pvstoyx-75" target="706ib3QJ6pyc4pvstoyx-14">
          <mxGeometry width="100" height="100" relative="1" as="geometry">
            <Array as="points" />
          </mxGeometry>
        </mxCell>
        <mxCell id="706ib3QJ6pyc4pvstoyx-75" value="ts-secret" style="overflow=block;blockSpacing=1;whiteSpace=wrap;html=1;verticalLabelPosition=bottom;verticalAlign=top;shape=mxgraph.kubernetes.icon;prIcon=secret;fontSize=16.7;fontColor=default;spacing=0;strokeColor=none;strokeOpacity=100;rounded=1;absoluteArcSize=1;arcSize=9;fillColor=#326ce5;strokeWidth=0.8;lucidId=g4BkEk6fzsO4;" vertex="1" parent="1">
          <mxGeometry x="825" y="648" width="90" height="84" as="geometry" />
        </mxCell>
        <mxCell id="706ib3QJ6pyc4pvstoyx-76" value="" style="group;dropTarget=0;pointerEvents=0;html=1;rounded=1;fontColor=default;" vertex="1" parent="1">
          <mxGeometry x="385" y="975" width="196" height="150" as="geometry" />
        </mxCell>
        <mxCell id="706ib3QJ6pyc4pvstoyx-77" value="Host" style="shape=partialRectangle;html=1;whiteSpace=wrap;connectable=0;fillColor=#fcfcca;fillOpacity=100;verticalAlign=middle;dashed=1;fixDash=1;spacing=3.8;strokeWidth=0.8;fontSize=16.7;rounded=1;fontColor=default;" vertex="1" parent="706ib3QJ6pyc4pvstoyx-76">
          <mxGeometry width="81.45806726266497" height="30" as="geometry" />
        </mxCell>
        <mxCell id="706ib3QJ6pyc4pvstoyx-78" value="ts.bmait.com" style="shape=partialRectangle;html=1;whiteSpace=wrap;connectable=0;fillColor=#fcfcca;fillOpacity=100;verticalAlign=middle;dashed=1;fixDash=1;spacing=3.8;strokeWidth=0.8;fontSize=16.7;rounded=1;fontColor=default;" vertex="1" parent="706ib3QJ6pyc4pvstoyx-76">
          <mxGeometry x="81.45806726266497" width="114.67752234993613" height="30" as="geometry" />
        </mxCell>
        <mxCell id="706ib3QJ6pyc4pvstoyx-79" value="Path" style="shape=partialRectangle;html=1;whiteSpace=wrap;connectable=0;fillColor=#fcfcca;fillOpacity=100;verticalAlign=middle;dashed=1;fixDash=1;spacing=3.8;strokeWidth=0.8;fontSize=16.7;rounded=1;fontColor=default;" vertex="1" parent="706ib3QJ6pyc4pvstoyx-76">
          <mxGeometry y="30" width="81.45806726266497" height="30" as="geometry" />
        </mxCell>
        <mxCell id="706ib3QJ6pyc4pvstoyx-80" value="/pprod" style="shape=partialRectangle;html=1;whiteSpace=wrap;connectable=0;fillColor=#fcfcca;fillOpacity=100;verticalAlign=middle;dashed=1;fixDash=1;spacing=3.8;strokeWidth=0.8;fontSize=16.7;rounded=1;fontColor=default;" vertex="1" parent="706ib3QJ6pyc4pvstoyx-76">
          <mxGeometry x="81.45806726266497" y="30" width="114.67752234993613" height="30" as="geometry" />
        </mxCell>
        <mxCell id="706ib3QJ6pyc4pvstoyx-81" value="Backend" style="shape=partialRectangle;html=1;whiteSpace=wrap;connectable=0;fillColor=#fcfcca;fillOpacity=100;verticalAlign=middle;dashed=1;fixDash=1;spacing=3.8;strokeWidth=0.8;fontSize=16.7;rounded=1;fontColor=default;" vertex="1" parent="706ib3QJ6pyc4pvstoyx-76">
          <mxGeometry y="60" width="81.45806726266497" height="30" as="geometry" />
        </mxCell>
        <mxCell id="706ib3QJ6pyc4pvstoyx-82" value="ts-pprod-front" style="shape=partialRectangle;html=1;whiteSpace=wrap;connectable=0;fillColor=#fcfcca;fillOpacity=100;verticalAlign=middle;dashed=1;fixDash=1;spacing=3.8;strokeWidth=0.8;fontSize=16.7;rounded=1;fontColor=default;" vertex="1" parent="706ib3QJ6pyc4pvstoyx-76">
          <mxGeometry x="81.45806726266497" y="60" width="114.67752234993613" height="30" as="geometry" />
        </mxCell>
        <mxCell id="706ib3QJ6pyc4pvstoyx-83" value="Port" style="shape=partialRectangle;html=1;whiteSpace=wrap;connectable=0;fillColor=#fcfcca;strokeOpacity=100;fillOpacity=100;verticalAlign=middle;dashed=1;fixDash=1;spacing=3.8;strokeWidth=0.8;fontSize=16.7;rounded=1;fontColor=default;" vertex="1" parent="706ib3QJ6pyc4pvstoyx-76">
          <mxGeometry y="90" width="81.45806726266497" height="30" as="geometry" />
        </mxCell>
        <mxCell id="706ib3QJ6pyc4pvstoyx-84" value="80, 443" style="shape=partialRectangle;html=1;whiteSpace=wrap;connectable=0;fillColor=#fcfcca;strokeOpacity=100;fillOpacity=100;verticalAlign=middle;dashed=1;fixDash=1;spacing=3.8;strokeWidth=0.8;fontSize=16.7;rounded=1;fontColor=default;" vertex="1" parent="706ib3QJ6pyc4pvstoyx-76">
          <mxGeometry x="81.45806726266497" y="90" width="114.67752234993613" height="30" as="geometry" />
        </mxCell>
        <mxCell id="706ib3QJ6pyc4pvstoyx-85" value="TLS" style="shape=partialRectangle;html=1;whiteSpace=wrap;connectable=0;fillColor=#fcfcca;strokeOpacity=100;fillOpacity=100;verticalAlign=middle;dashed=1;fixDash=1;spacing=3.8;strokeWidth=0.8;fontSize=16.7;rounded=1;fontColor=default;" vertex="1" parent="706ib3QJ6pyc4pvstoyx-76">
          <mxGeometry y="120" width="81.45806726266497" height="30" as="geometry" />
        </mxCell>
        <mxCell id="706ib3QJ6pyc4pvstoyx-86" value="ts-secret" style="shape=partialRectangle;html=1;whiteSpace=wrap;connectable=0;fillColor=#fcfcca;strokeOpacity=100;fillOpacity=100;verticalAlign=middle;dashed=1;fixDash=1;spacing=3.8;strokeWidth=0.8;fontSize=16.7;rounded=1;fontColor=default;" vertex="1" parent="706ib3QJ6pyc4pvstoyx-76">
          <mxGeometry x="81.45806726266497" y="120" width="114.67752234993613" height="30" as="geometry" />
        </mxCell>
        <mxCell id="706ib3QJ6pyc4pvstoyx-87" value="" style="html=1;jettySize=18;whiteSpace=wrap;fontSize=13;strokeColor=#979ea8;strokeOpacity=100;strokeWidth=0.8;rounded=1;arcSize=12;edgeStyle=orthogonalEdgeStyle;startArrow=block;startFill=1;endArrow=none;exitX=0.5;exitY=-0.002;exitPerimeter=0;entryX=0.123;entryY=0.804;entryPerimeter=0;lucidId=J6BkAnQj8GWA;fontColor=default;" edge="1" parent="1" source="706ib3QJ6pyc4pvstoyx-76" target="706ib3QJ6pyc4pvstoyx-14">
          <mxGeometry width="100" height="100" relative="1" as="geometry">
            <Array as="points" />
          </mxGeometry>
        </mxCell>
        <mxCell id="706ib3QJ6pyc4pvstoyx-95" value="Certificate Manager" style="html=1;overflow=block;blockSpacing=1;whiteSpace=wrap;fontSize=16.7;fontColor=default;spacing=0;strokeColor=#979ea8;strokeOpacity=100;fillOpacity=100;fillColor=#4285f4;strokeWidth=0.8;lucidId=kBBkrE_bwEIE;rounded=1;" vertex="1" parent="1">
          <mxGeometry x="1000" y="658.5" width="69" height="69" as="geometry" />
        </mxCell>
        <mxCell id="706ib3QJ6pyc4pvstoyx-96" value="CronJob" style="overflow=block;blockSpacing=1;whiteSpace=wrap;html=1;verticalLabelPosition=bottom;verticalAlign=top;shape=mxgraph.kubernetes.icon;prIcon=cronjob;fontSize=16.7;fontColor=default;spacing=0;strokeColor=none;strokeOpacity=100;rounded=1;absoluteArcSize=1;arcSize=9;fillColor=#326ce5;strokeWidth=0.8;lucidId=2TBk5Ll0OUcb;" vertex="1" parent="1">
          <mxGeometry x="1193" y="658.5" width="62" height="62" as="geometry" />
        </mxCell>
        <mxCell id="706ib3QJ6pyc4pvstoyx-97" value="" style="html=1;jettySize=18;whiteSpace=wrap;fontSize=13;strokeColor=#979ea8;strokeOpacity=100;strokeWidth=0.8;rounded=1;arcSize=12;edgeStyle=orthogonalEdgeStyle;startArrow=block;startFill=1;endArrow=block;endFill=0;exitX=1;exitY=0.459;exitPerimeter=0;entryX=0.024;entryY=0.509;entryPerimeter=0;lucidId=oUBkp-Xp98Js;fontColor=default;" edge="1" parent="1" source="706ib3QJ6pyc4pvstoyx-95" target="706ib3QJ6pyc4pvstoyx-96">
          <mxGeometry width="100" height="100" relative="1" as="geometry">
            <Array as="points" />
          </mxGeometry>
        </mxCell>
        <mxCell id="706ib3QJ6pyc4pvstoyx-98" value="renew" style="text;html=1;resizable=0;labelBackgroundColor=default;align=center;verticalAlign=middle;fontStyle=1;fontColor=default;fontSize=13.3;rounded=1;" vertex="1" parent="706ib3QJ6pyc4pvstoyx-97">
          <mxGeometry x="0.18543206849990934" relative="1" as="geometry" />
        </mxCell>
        <mxCell id="706ib3QJ6pyc4pvstoyx-99" value="" style="html=1;jettySize=18;whiteSpace=wrap;fontSize=13;strokeColor=#008573;strokeOpacity=100;strokeWidth=0.8;rounded=1;arcSize=12;edgeStyle=orthogonalEdgeStyle;startArrow=none;endArrow=block;endFill=1;exitX=0;exitY=0.5;exitPerimeter=0;lucidId=ZBBkZ2UlWT-Q;fontColor=default;entryX=0.938;entryY=0.534;entryDx=0;entryDy=0;entryPerimeter=0;" edge="1" parent="1" target="706ib3QJ6pyc4pvstoyx-75">
          <mxGeometry width="100" height="100" relative="1" as="geometry">
            <Array as="points" />
            <mxPoint x="1008" y="692.47" as="sourcePoint" />
            <mxPoint x="918" y="692" as="targetPoint" />
          </mxGeometry>
        </mxCell>
        <mxCell id="706ib3QJ6pyc4pvstoyx-100" value="Certif" style="text;html=1;resizable=0;labelBackgroundColor=default;align=center;verticalAlign=middle;fontStyle=1;fontColor=default;fontSize=13.3;rounded=1;" vertex="1" parent="706ib3QJ6pyc4pvstoyx-99">
          <mxGeometry relative="1" as="geometry" />
        </mxCell>
        <mxCell id="706ib3QJ6pyc4pvstoyx-103" value="User" style="shape=umlActor;verticalLabelPosition=bottom;verticalAlign=top;html=1;outlineConnect=0;" vertex="1" parent="1">
          <mxGeometry x="78" y="420" width="61" height="103" as="geometry" />
        </mxCell>
        <mxCell id="706ib3QJ6pyc4pvstoyx-105" value="Pod&#xa;ts-api" style="overflow=block;blockSpacing=1;whiteSpace=wrap;html=1;verticalLabelPosition=bottom;verticalAlign=top;shape=mxgraph.kubernetes.icon;prIcon=pod;fontSize=16.7;fontColor=#000000;spacing=0;strokeColor=none;strokeOpacity=100;rounded=1;absoluteArcSize=1;arcSize=9;fillColor=#326ce5;strokeWidth=0.8;lucidId=6IBk2XAK-EOn;" vertex="1" parent="1">
          <mxGeometry x="1135" y="946" width="60" height="60" as="geometry" />
        </mxCell>
        <mxCell id="706ib3QJ6pyc4pvstoyx-106" value="Service&#xa;ts-api" style="points=[[0.479,0.536,0]];overflow=block;blockSpacing=1;whiteSpace=wrap;html=1;verticalLabelPosition=bottom;verticalAlign=top;shape=mxgraph.kubernetes.icon;prIcon=svc;fontSize=16.7;fontColor=#000000;spacing=0;strokeColor=none;strokeOpacity=100;rounded=1;absoluteArcSize=1;arcSize=9;fillColor=#326ce5;strokeWidth=0.8;lucidId=fKBk4ODMliyU;" vertex="1" parent="1">
          <mxGeometry x="895" y="951" width="60" height="60" as="geometry" />
        </mxCell>
        <mxCell id="706ib3QJ6pyc4pvstoyx-109" value="" style="html=1;jettySize=18;whiteSpace=wrap;fontSize=13;strokeColor=#008573;strokeOpacity=100;dashed=1;fixDash=1;dashPattern=6 5;strokeWidth=3;rounded=1;arcSize=12;edgeStyle=orthogonalEdgeStyle;startArrow=none;endArrow=block;endFill=1;exitX=0;exitY=0.5;exitPerimeter=0;entryX=0.5;entryY=0;entryPerimeter=0;lucidId=QPBkeaAaKZ_N;fontColor=#000000;exitDx=0;exitDy=0;" edge="1" parent="1" source="706ib3QJ6pyc4pvstoyx-66">
          <mxGeometry width="100" height="100" relative="1" as="geometry">
            <Array as="points">
              <mxPoint x="1135" y="944" />
              <mxPoint x="925" y="944" />
            </Array>
            <mxPoint x="1165" y="893" as="sourcePoint" />
            <mxPoint x="925" y="958" as="targetPoint" />
          </mxGeometry>
        </mxCell>
        <mxCell id="706ib3QJ6pyc4pvstoyx-110" value="" style="html=1;jettySize=18;whiteSpace=wrap;fontSize=13;strokeColor=#008573;strokeOpacity=100;strokeWidth=0.8;rounded=1;arcSize=12;edgeStyle=orthogonalEdgeStyle;startArrow=none;endArrow=block;endFill=1;exitX=0.479;exitY=0.536;exitPerimeter=0;entryX=0.002;entryY=0.62;entryPerimeter=0;lucidId=2QBkOOBNjvZZ;fontColor=#000000;" edge="1" parent="1" source="706ib3QJ6pyc4pvstoyx-106" target="706ib3QJ6pyc4pvstoyx-105">
          <mxGeometry width="100" height="100" relative="1" as="geometry">
            <Array as="points" />
          </mxGeometry>
        </mxCell>
        <mxCell id="706ib3QJ6pyc4pvstoyx-111" value="" style="html=1;jettySize=18;whiteSpace=wrap;fontSize=13;strokeColor=#008573;strokeOpacity=100;dashed=1;fixDash=1;dashPattern=6 5;strokeWidth=2.3;rounded=1;arcSize=12;edgeStyle=orthogonalEdgeStyle;startArrow=block;startFill=1;endArrow=none;exitX=0.026;exitY=0.5;exitPerimeter=0;entryX=0.479;entryY=0.536;entryPerimeter=0;lucidId=qRBk0__szffv;fontColor=#000000;" edge="1" parent="1" target="706ib3QJ6pyc4pvstoyx-106">
          <mxGeometry width="100" height="100" relative="1" as="geometry">
            <Array as="points">
              <mxPoint x="839" y="1118" />
              <mxPoint x="839" y="983" />
            </Array>
            <mxPoint x="896.56" y="1118" as="sourcePoint" />
          </mxGeometry>
        </mxCell>
        <mxCell id="706ib3QJ6pyc4pvstoyx-112" value="" style="html=1;jettySize=18;whiteSpace=wrap;fontSize=13;strokeColor=#008573;strokeOpacity=100;strokeWidth=0.8;rounded=1;arcSize=12;edgeStyle=orthogonalEdgeStyle;startArrow=none;endArrow=block;endFill=1;exitX=0.998;exitY=0.638;exitPerimeter=0;entryX=0.001;entryY=0.625;entryPerimeter=0;lucidId=pSBkrFDjkO1o;fontColor=#000000;" edge="1" parent="1">
          <mxGeometry width="100" height="100" relative="1" as="geometry">
            <Array as="points" />
            <mxPoint x="954.8800000000001" y="1126.2800000000002" as="sourcePoint" />
            <mxPoint x="1135.0600000000004" y="1126.5" as="targetPoint" />
          </mxGeometry>
        </mxCell>
        <mxCell id="706ib3QJ6pyc4pvstoyx-113" value="Deploy front" style="overflow=block;blockSpacing=1;whiteSpace=wrap;html=1;verticalLabelPosition=bottom;verticalAlign=top;shape=mxgraph.kubernetes.icon;prIcon=deploy;fontSize=16.7;fontColor=#000000;spacing=0;strokeColor=none;strokeOpacity=100;rounded=1;absoluteArcSize=1;arcSize=9;fillColor=#326ce5;strokeWidth=0.8;lucidId=TLBkdZmHqVLj;" vertex="1" parent="1">
          <mxGeometry x="1223" y="789" width="47" height="47" as="geometry" />
        </mxCell>
        <mxCell id="706ib3QJ6pyc4pvstoyx-114" value="Deploy api" style="overflow=block;blockSpacing=1;whiteSpace=wrap;html=1;verticalLabelPosition=bottom;verticalAlign=top;shape=mxgraph.kubernetes.icon;prIcon=deploy;fontSize=16.7;fontColor=#000000;spacing=0;strokeColor=none;strokeOpacity=100;rounded=1;absoluteArcSize=1;arcSize=9;fillColor=#326ce5;strokeWidth=0.8;lucidId=gMBkPvk15~V8;" vertex="1" parent="1">
          <mxGeometry x="1223" y="928" width="47" height="47" as="geometry" />
        </mxCell>
        <mxCell id="706ib3QJ6pyc4pvstoyx-115" value="Deploy DB" style="overflow=block;blockSpacing=1;whiteSpace=wrap;html=1;verticalLabelPosition=bottom;verticalAlign=top;shape=mxgraph.kubernetes.icon;prIcon=deploy;fontSize=16.7;fontColor=#000000;spacing=0;strokeColor=none;strokeOpacity=100;rounded=1;absoluteArcSize=1;arcSize=9;fillColor=#326ce5;strokeWidth=0.8;lucidId=jOBkTU~h5k5~;" vertex="1" parent="1">
          <mxGeometry x="1223" y="1058" width="47" height="47" as="geometry" />
        </mxCell>
        <mxCell id="706ib3QJ6pyc4pvstoyx-116" value="" style="html=1;overflow=block;blockSpacing=1;whiteSpace=wrap;fontSize=13;spacing=3.8;strokeColor=#82b366;strokeOpacity=100;fillOpacity=100;rounded=1;absoluteArcSize=1;arcSize=9;fillColor=#d5e8d4;strokeWidth=0.8;lucidId=n2Bk-.PUPJcf;" vertex="1" parent="1">
          <mxGeometry x="1529" y="298" width="690" height="270" as="geometry" />
        </mxCell>
        <mxCell id="706ib3QJ6pyc4pvstoyx-118" value="Pod&lt;br&gt;database-dev" style="overflow=block;blockSpacing=1;whiteSpace=wrap;html=1;verticalLabelPosition=bottom;verticalAlign=top;shape=mxgraph.kubernetes.icon;prIcon=pod;fontSize=16.7;fontColor=#000000;spacing=0;strokeColor=none;strokeOpacity=100;rounded=1;absoluteArcSize=1;arcSize=9;fillColor=#326ce5;strokeWidth=0.8;lucidId=jOBk2vHJMasg;" vertex="1" parent="1">
          <mxGeometry x="1980" y="368" width="60" height="60" as="geometry" />
        </mxCell>
        <mxCell id="706ib3QJ6pyc4pvstoyx-119" value="Service&lt;br&gt;database-dev" style="overflow=block;blockSpacing=1;whiteSpace=wrap;html=1;verticalLabelPosition=bottom;verticalAlign=top;shape=mxgraph.kubernetes.icon;prIcon=svc;fontSize=16.7;fontColor=#000000;spacing=0;strokeColor=none;strokeOpacity=100;rounded=1;absoluteArcSize=1;arcSize=9;fillColor=#326ce5;strokeWidth=0.8;lucidId=jOBknMZ~pSnX;" vertex="1" parent="1">
          <mxGeometry x="1620" y="368" width="60" height="60" as="geometry" />
        </mxCell>
        <mxCell id="706ib3QJ6pyc4pvstoyx-121" value="" style="html=1;jettySize=18;whiteSpace=wrap;fontSize=13;strokeColor=#008573;strokeOpacity=100;strokeWidth=0.8;rounded=1;arcSize=12;edgeStyle=orthogonalEdgeStyle;startArrow=none;endArrow=block;endFill=1;exitX=0.998;exitY=0.638;exitPerimeter=0;entryX=0.001;entryY=0.625;entryPerimeter=0;lucidId=pSBkrFDjkO1o;fontColor=#000000;" edge="1" parent="1" source="706ib3QJ6pyc4pvstoyx-119" target="706ib3QJ6pyc4pvstoyx-118">
          <mxGeometry width="100" height="100" relative="1" as="geometry">
            <Array as="points" />
          </mxGeometry>
        </mxCell>
        <mxCell id="706ib3QJ6pyc4pvstoyx-45" value="Deploy api" style="overflow=block;blockSpacing=1;whiteSpace=wrap;html=1;verticalLabelPosition=bottom;verticalAlign=top;shape=mxgraph.kubernetes.icon;prIcon=deploy;fontSize=16.7;fontColor=#000000;spacing=0;strokeColor=none;strokeOpacity=100;rounded=1;absoluteArcSize=1;arcSize=9;fillColor=#326ce5;strokeWidth=0.8;lucidId=gMBkPvk15~V8;" vertex="1" parent="1">
          <mxGeometry x="1229" y="227" width="47" height="47" as="geometry" />
        </mxCell>
        <mxCell id="706ib3QJ6pyc4pvstoyx-122" value="deployment&amp;nbsp;&lt;br&gt;database-dev" style="overflow=block;blockSpacing=1;whiteSpace=wrap;html=1;verticalLabelPosition=bottom;verticalAlign=top;shape=mxgraph.kubernetes.icon;prIcon=deploy;fontSize=16.7;fontColor=#000000;spacing=0;strokeColor=none;strokeOpacity=100;rounded=1;absoluteArcSize=1;arcSize=9;fillColor=#326ce5;strokeWidth=0.8;lucidId=jOBkTU~h5k5~;" vertex="1" parent="1">
          <mxGeometry x="2172" y="220" width="75" height="75" as="geometry" />
        </mxCell>
      </root>
    </mxGraphModel>
  </diagram>
</mxfile>
